{
  "product": {
    "status": "success",
    "page": 1,
    "totalPage": 2,
    "total": 20,
    "data": [
      {
        "id": 1,
        "name": "iphone 11-1"
      },
      {
        "id": 2,
        "name": "iphone 11-2"
      },
      {
        "id": 3,
        "name": "iphone 11-3"
      },
      {
        "id": 4,
        "name": "iphone 11-4"
      },
      {
        "id": 5,
        "name": "iphone 11-5"
      },
      {
        "id": 6,
        "name": "iphone 11-6"
      },
      {
        "id": 7,
        "name": "iphone 11-7"
      },
      {
        "id": 8,
        "name": "iphone 11-8"
      },
      {
        "id": 9,
        "name": "iphone 11-9"
      },
      {
        "id": 10,
        "name": "iphone 11-10"
      }
    ]
  }
  "product2": {
    "status": "success",
    "page": 2,
    "totalPage": 2,
    "total": 20,
    "data": [
      {
        "id": 11,
        "name": "iphone 11-11"
      },
      {
        "id": 12,
        "name": "iphone 11-12"
      },
      {
        "id": 13,
        "name": "iphone 11-13"
      },
      {
        "id": 14,
        "name": "iphone 11-14"
      },
      {
        "id": 15,
        "name": "iphone 11-15"
      },
      {
        "id": 16,
        "name": "iphone 11-16"
      },
      {
        "id": 17,
        "name": "iphone 11-17"
      },
      {
        "id": 18,
        "name": "iphone 11-18"
      },
      {
        "id": 19,
        "name": "iphone 11-19"
      },
      {
        "id": 20,
        "name": "iphone 11-20"
      }
    ]
  }
}
